{
	"jcr:primaryType": "cq:Page",
	"jcr:content": {
		"jcr:primaryType": "cq:PageContent",
		"jcr:title": "Demo",
		"cq:template": "/apps/aem-demo-project/templates/basePage",
		"sling:resourceType": "aem-demo-project/components/structure/basePage"
	},
	
	"in": {
		"jcr:primaryType": "cq:Page",
		"jcr:content": {
		"jcr:primaryType": "cq:PageContent",
		"jcr:title": "India",
		"cq:template": "/apps/aem-demo-project/templates/basePage",
		"sling:resourceType": "aem-demo-project/components/structure/basePage"
		}
	}
}